%YAML 1.1
%TAG !u! tag:unity3d.com,2011:
--- !u!1001 &8411749541161728323
PrefabInstance:
  m_ObjectHideFlags: 0
  serializedVersion: 2
  m_Modification:
    m_TransformParent: {fileID: 0}
    m_Modifications:
    - target: {fileID: 1523305209410037970, guid: 7d4cfea20f665fa4193bb60b77a04bfb, type: 3}
      propertyPath: m_Sprite
      value: 
      objectReference: {fileID: 21300000, guid: 26f06a6188724d84d931b4916260bc59, type: 3}
    - target: {fileID: 7138336659564038292, guid: 7d4cfea20f665fa4193bb60b77a04bfb, type: 3}
      propertyPath: m_Name
      value: Explosive Platform
      objectReference: {fileID: 0}
    - target: {fileID: 7138336659564038294, guid: 7d4cfea20f665fa4193bb60b77a04bfb, type: 3}
      propertyPath: m_RootOrder
      value: 0
      objectReference: {fileID: 0}
    - target: {fileID: 7138336659564038294, guid: 7d4cfea20f665fa4193bb60b77a04bfb, type: 3}
      propertyPath: m_LocalPosition.x
      value: 1.3696591
      objectReference: {fileID: 0}
    - target: {fileID: 7138336659564038294, guid: 7d4cfea20f665fa4193bb60b77a04bfb, type: 3}
      propertyPath: m_LocalPosition.y
      value: -1.747586
      objectReference: {fileID: 0}
    - target: {fileID: 7138336659564038294, guid: 7d4cfea20f665fa4193bb60b77a04bfb, type: 3}
      propertyPath: m_LocalPosition.z
      value: 0
      objectReference: {fileID: 0}
    - target: {fileID: 7138336659564038294, guid: 7d4cfea20f665fa4193bb60b77a04bfb, type: 3}
      propertyPath: m_LocalRotation.w
      value: 1
      objectReference: {fileID: 0}
    - target: {fileID: 7138336659564038294, guid: 7d4cfea20f665fa4193bb60b77a04bfb, type: 3}
      propertyPath: m_LocalRotation.x
      value: 0
      objectReference: {fileID: 0}
    - target: {fileID: 7138336659564038294, guid: 7d4cfea20f665fa4193bb60b77a04bfb, type: 3}
      propertyPath: m_LocalRotation.y
      value: 0
      objectReference: {fileID: 0}
    - target: {fileID: 7138336659564038294, guid: 7d4cfea20f665fa4193bb60b77a04bfb, type: 3}
      propertyPath: m_LocalRotation.z
      value: 0
      objectReference: {fileID: 0}
    - target: {fileID: 7138336659564038294, guid: 7d4cfea20f665fa4193bb60b77a04bfb, type: 3}
      propertyPath: m_LocalEulerAnglesHint.x
      value: 0
      objectReference: {fileID: 0}
    - target: {fileID: 7138336659564038294, guid: 7d4cfea20f665fa4193bb60b77a04bfb, type: 3}
      propertyPath: m_LocalEulerAnglesHint.y
      value: 0
      objectReference: {fileID: 0}
    - target: {fileID: 7138336659564038294, guid: 7d4cfea20f665fa4193bb60b77a04bfb, type: 3}
      propertyPath: m_LocalEulerAnglesHint.z
      value: 0
      objectReference: {fileID: 0}
    m_RemovedComponents: []
  m_SourcePrefab: {fileID: 100100000, guid: 7d4cfea20f665fa4193bb60b77a04bfb, type: 3}
